[
    {
        "geometry": {
            "type": "Point",
            "coordinates": ["4.346992", "50.835854"]
        },
        "type": "Feature",
        "properties": {
            "Website": "www.les-bains-de-la-ville-de-bruxelles.html",
            "City": "Bruxelles",
            "Name": "Les Bains de Bruxelles",
            "Schedule": "Lu - Ve : 7:30 - 19:30 Sa : 7:30 - 17:00",
            "ZipCode": "1000",
            "Phone": "02/5025373",
            "Length": "&lt; 25m",
            "Street": "Rue du Chevreuil",
            "StreetNumber": "28"
        }
    },
    {
        "geometry": {
            "type": "Point",
            "coordinates": ["4.393772", "50.830475"]
        },
        "type": "Feature",
        "properties": {
            "Website": "www.la-piscine-detterbeek-lespadon.html",
            "City": "Etterbeek",
            "Name": "L'Espadon",
            "Schedule": "Lundi - Jeudi : 08-19h30\nVendredi: 08-20h\nSamedi: 09-13h & 14-18h",
            "ZipCode": "1040",
            "Phone": "02/6403838",
            "Length": "25 m",
            "Street": "Rue des Champs",
            "StreetNumber": "71"
        }
    },
    {
        "geometry": {
            "type": "Point",
            "coordinates": ["4.378524", "50.832329"]
        },
        "type": "Feature",
        "properties": {
            "Website": "www.la-piscine-dixelles.html",
            "City": "Ixelles",
            "Name": "La piscine d'Ixelles",
            "Schedule": "Lundi de 8h \u00e0 21h Mardi au dimanche de 8h \u00e0 18h",
            "ZipCode": "1050",
            "Phone": "02-515.69.30",
            "Length": "29,20 x 14,40",
            "Street": "Rue de la Natation",
            "StreetNumber": "10"
        }
    },
    {
        "geometry": {
            "type": "Point",
            "coordinates": ["4.34102", "50.826962"]
        },
        "type": "Feature",
        "properties": {
            "Website": "www.la-piscine-de-saint-gilles-piscine.html",
            "City": "Saint-Gilles",
            "Name": "Piscine Victor Boin",
            "Schedule": "Lundi, mardi, jeudi et vendredi de 8h \u00e0 19h\nle mercredi de 14h \u00e0 19h\nle samedi de 9h \u00e0 18h\nVacances: du lundi au vendredi de 12h \u00e0 19h\nle samedi de 12h \u00e0 18h",
            "ZipCode": "1060",
            "Phone": "02-539.06.15",
            "Length": "33m/13",
            "Street": "Rue de la Perche",
            "StreetNumber": "38"
        }
    },
    {
        "geometry": {
            "type": "Point",
            "coordinates": ["4.365142", "50.856728"]
        },
        "type": "Feature",
        "properties": {
            "Website": " www.les-bains-de-saint-josse-piscine-saint.html",
            "City": "Saint-Josse-Ten-Noode",
            "Name": "Piscine Saint-Fran\u00e7ois",
            "Schedule": "Lundi - Mercredi: 08h00 - 20h00 Jeudi : 8h00 \u2013 22h00 Vendredi : 8h00 \u2013 19h00 Samedi: Clubs Fermeture : Juillet/Ao\u00fbt, Dimanche, jours f\u00e9ri\u00e9es, vacances scolaires",
            "ZipCode": "1210",
            "Phone": "",
            "Length": "25m",
            "Street": "Rue Saint-Fran\u00e7ois",
            "StreetNumber": "23-27"
        }
    },
    {
        "geometry": {
            "type": "Point",
            "coordinates": ["4.378296", "50.86557"]
        },
        "type": "Feature",
        "properties": {
            "Website": " www.la-piscine-de-schaerbeek-le-neptunium.html",
            "City": "Schaerbeek",
            "Name": "Le Neptunium",
            "Schedule": "Lundi - Vendredi : 08-19h30 Samedi: 09-17h30",
            "ZipCode": "1030",
            "Phone": "02-215.74.24",
            "Length": "33m",
            "Street": "Rue de J\u00e9rusalem",
            "StreetNumber": "54-56"
        }
    },
    {
        "geometry": {
            "type": "Point",
            "coordinates": ["4.353551", "50.875092"]
        },
        "type": "Feature",
        "properties": {
            "Website": " www.la-piscine-de-laeken.html",
            "City": "Laeken",
            "Name": "Piscine de Laeken",
            "Schedule": "",
            "ZipCode": "1020",
            "Phone": "02-425 57 12",
            "Length": "25m x 12,50 m",
            "Street": "Rue du Champ de l'Eglise",
            "StreetNumber": "73-89"
        }
    },
    {
        "geometry": {
            "type": "Point",
            "coordinates": ["4.406805", "50.867176"]
        },
        "type": "Feature",
        "properties": {
            "Website": " www.le-triton-piscine-evere.html",
            "City": "Evere",
            "Name": "Triton d'Evere",
            "Schedule": "Lundi 8h00 > 19h00\nMardi 8h00 > 19h00\nMercredi 8h00 > 19h00\nJeudi 8h00 > 21h00\nVendredi 8h00 > 19h00\nSamedi 8h30 > 18h00\nDimanche 9h00 > 18h00",
            "ZipCode": "1140",
            "Phone": "02/247 63 20",
            "Length": "25m",
            "Street": "Av. des Anciens Combattants",
            "StreetNumber": "260"
        }
    },
    {
        "geometry": {
            "type": "Point",
            "coordinates": ["4.408745", "50.806362"]
        },
        "type": "Feature",
        "properties": {
            "Website": "www.calypso2000.be",
            "City": "Watermael-Boitsfort",
            "Name": "Calypso 2000",
            "Schedule": "Lundi: 07-19h\nMardi: 07-19h30\nMercredi & Jeudi: 07-19h\nVendredi: 07-18h30\nSamedi & Dimanche: 08-17h30",
            "ZipCode": "1170",
            "Phone": "02-675.48.99",
            "Length": "33m",
            "Street": "Avenue L\u00e9opold Wiener",
            "StreetNumber": "60"
        }
    },
    {
        "geometry": {
            "type": "Point",
            "coordinates": ["4.348304", "50.805016"]
        },
        "type": "Feature",
        "properties": {
            "Website": "www.la-piscine-duccle-piscine-de-longchamps.html",
            "City": "Uccle",
            "Name": "Piscine de Longchamps",
            "Schedule": "lundi, mardi, jeudi : de 07H45 \u00e0 19H, mercredi et vendredi : de 07H45 \u00e0 21H00, samedi : de 07H45 \u00e0 20H00 dimanche : de 07H45 \u00e0 14H00",
            "ZipCode": "1180",
            "Phone": "02-374.90.05",
            "Length": "33,33 x 16,66m",
            "Street": "Square De Fr\u00e9 ",
            "StreetNumber": "1"
        }
    },
    {
        "geometry": {
            "type": "Point",
            "coordinates": ["4.428205", "50.843777"]
        },
        "type": "Feature",
        "properties": {
            "Website": " www.la-piscine-de-woluwe-saint-lambert-le.html",
            "City": "Woluw\u00e9-Saint-Lambert",
            "Name": "Le Poseidon",
            "Schedule": "Lundi - Vendredi : 07h30-19h30 Samedi & Dimanche: 07h30-19h",
            "ZipCode": "1200",
            "Phone": "02-771.66.55",
            "Length": "25 m",
            "Street": "Avenue des Vaillants",
            "StreetNumber": "2"
        }
    },
    {
        "geometry": {
            "type": "Point",
            "coordinates": ["4.455442", "50.830818"]
        },
        "type": "Feature",
        "properties": {
            "Website": "www.la-piscine-de-woluwe-saint-pierre.html",
            "City": "Woluw\u00e9-Saint-Pierre",
            "Name": "Sportcity",
            "Schedule": "du lundi au jeudi de 8h00 \u00e0 19h00 Vendredi de 8h00 \u00e0 20h00 Samedi - dimanche de 08h00 \u00e0 19h00",
            "ZipCode": "1150",
            "Phone": "02-773.18.20",
            "Length": "50 m divisible en 2",
            "Street": "Avenue Salom\u00e9",
            "StreetNumber": "2"
        }
    },
    {
        "geometry": {
            "type": "Point",
            "coordinates": ["4.311521", "50.854034"]
        },
        "type": "Feature",
        "properties": {
            "Website": "www.la-piscine-de-molenbeek-saint-jean.html",
            "City": "Molenbeek Saint-Jean",
            "Name": "Piscine Louis Nam\u00e8che",
            "Schedule": "Lundi au vendredi: 8h - 19h\n(derniers tickets: 18h30)\nWeek-end: 8h \u00e0 20h\n(derniers tickets: 19h30) ",
            "ZipCode": "1080",
            "Phone": "02-410.08.03",
            "Length": "olympique",
            "Street": "Rue Van Kalck",
            "StreetNumber": "93"
        }
    },
    {
        "geometry": {
            "type": "Point",
            "coordinates": ["4.31384", "50.872883"]
        },
        "type": "Feature",
        "properties": {
            "Website": "www.la-piscine-nereus-ganshoren.html",
            "City": "Ganshoren",
            "Name": "Piscine Nereus-Ganshoren",
            "Schedule": "",
            "ZipCode": "1083",
            "Phone": "",
            "Length": "25m",
            "Street": "Place reine Fabiola",
            "StreetNumber": "10"
        }
    }
]